{"photos":{"page":2,"pages":7654,"perpage":20,"total":"153079","photo":[{"id":"31410371817","owner":"136190838@N08","secret":"e71020f9a8","server":"4872","farm":5,"title":"Eugene MIC_4985.jpg","ispublic":1,"isfriend":0,"isfamily":0},{"id":"44532790350","owner":"136421987@N08","secret":"a8cb9111fe","server":"4892","farm":5,"title":"Milk Bowl","ispublic":1,"isfriend":0,"isfamily":0},{"id":"45437225355","owner":"136190838@N08","secret":"df6f17cf5d","server":"4911","farm":5,"title":"Yasmin MIC_5081.jpg","ispublic":1,"isfriend":0,"isfamily":0},{"id":"46349737031","owner":"136190838@N08","secret":"e3349910d1","server":"4808","farm":5,"title":"Mickey RAE_3254.jpg","ispublic":1,"isfriend":0,"isfamily":0},{"id":"45437213175","owner":"136190838@N08","secret":"59f5c54706","server":"4854","farm":5,"title":"Luke  RAE_3309.jpg","ispublic":1,"isfriend":0,"isfamily":0},{"id":"44532763820","owner":"136190838@N08","secret":"3c38f9cdd2","server":"4913","farm":5,"title":"Jane  RAE_3304.jpg","ispublic":1,"isfriend":0,"isfamily":0},{"id":"32477670508","owner":"136190838@N08","secret":"f2a23453ed","server":"4822","farm":5,"title":"Jackson  RAE_3345.jpg","ispublic":1,"isfriend":0,"isfamily":0},{"id":"32477665078","owner":"136190838@N08","secret":"4a6bfd0329","server":"4850","farm":5,"title":"Rascal RAE_3351.jpg","ispublic":1,"isfriend":0,"isfamily":0},{"id":"46349714851","owner":"136190838@N08","secret":"56d21d5c5b","server":"4900","farm":5,"title":"Koda RAE_3369.jpg","ispublic":1,"isfriend":0,"isfamily":0},{"id":"32477654458","owner":"136190838@N08","secret":"bb444e3491","server":"4845","farm":5,"title":"Koda RAE_3357.jpg","ispublic":1,"isfriend":0,"isfamily":0},{"id":"32477648698","owner":"136190838@N08","secret":"c16217f8d9","server":"4910","farm":5,"title":"Buttons and Koda RAE_3367.jpg","ispublic":1,"isfriend":0,"isfamily":0},{"id":"46349504351","owner":"157973455@N08","secret":"24eaa63b24","server":"4902","farm":5,"title":"IMG_4015","ispublic":1,"isfriend":0,"isfamily":0},{"id":"32477328858","owner":"98247896@N08","secret":"5c91ef5bd0","server":"4907","farm":5,"title":"DSC01004","ispublic":1,"isfriend":0,"isfamily":0},{"id":"46349466741","owner":"147564092@N02","secret":"9a63e1e98a","server":"4836","farm":5,"title":"#CatMeows: @catsu : @404ahS https:\/\/t.co\/gX2txYxLTz (via Twitter http:\/\/twitter.com\/catsu\/status\/1074051898079174662) https:\/\/ift.tt\/2Go96Ff","ispublic":1,"isfriend":0,"isfamily":0},{"id":"32477417888","owner":"167624854@N04","secret":"3109032942","server":"4857","farm":5,"title":"a12c0685f57fe4fc5f4d9b07b42e1c27","ispublic":1,"isfriend":0,"isfamily":0},{"id":"45626055404","owner":"68282140@N04","secret":"382fe6fed3","server":"4853","farm":5,"title":"Schlafmu\u0308tze","ispublic":1,"isfriend":0,"isfamily":0},{"id":"44532176590","owner":"157799360@N07","secret":"4e48952e7b","server":"4913","farm":5,"title":"Message not quite in a bottle","ispublic":1,"isfriend":0,"isfamily":0},{"id":"46349030291","owner":"166445063@N04","secret":"ec67a15c41","server":"4859","farm":5,"title":"Funny Baby Bunny Rabbit Videos #5 - Cute Rabbits Compilation 2018","ispublic":1,"isfriend":0,"isfamily":0},{"id":"46298440842","owner":"36062045@N00","secret":"cfe43a2c07","server":"4881","farm":5,"title":"Batterfly Adventures in Seattle! December 2018","ispublic":1,"isfriend":0,"isfamily":0},{"id":"44531926160","owner":"145652888@N07","secret":"9521e03e16","server":"4856","farm":5,"title":"IMG_1146","ispublic":1,"isfriend":0,"isfamily":0}]},"stat":"ok"}
